{
  "product": [
    {
      "id": 1,
      "name": "Night table",
      "imageUrl": "assets/images/shop/night-table.jpg",
      "tagNew": true,
      "tagBestSeller": false,
      "price": 9500
    },
    {
      "id": 2,
      "name": "Table",
      "imageUrl": "assets/images/shop/table.jpg",
      "tagNew": false,
      "tagBestSeller": false,
      "price": 40000
    },
    {
      "id": 3,
      "name": "Sofa",
      "imageUrl": "assets/images/shop/sofa.jpg",
      "tagNew": false,
      "tagBestSeller": false,
      "price": 35000
    },
    {
      "id": 4,
      "name": "Chair",
      "imageUrl": "assets/images/shop/chair.jpg",
      "tagNew": false,
      "tagBestSeller": false,
      "price": 5000
    },
    {
      "id": 5,
      "name": "Kitchen",
      "imageUrl": "assets/images/shop/kitchen.jpg",
      "tagNew": false,
      "tagBestSeller": true,
      "price": 89000
    },
    {
      "id": 6,
      "name": "Bedroom",
      "imageUrl": "assets/images/shop/bedroom.jpg",
      "tagNew": false,
      "tagBestSeller": false,
      "price": 350000
    }
  ]
}
